(kicad_sch (version 20230121) (generator eeschema)

  (uuid 813a0b24-251d-412c-b53e-2596aa7514c1)

  (paper "A4")

  (lib_symbols
    (symbol "Device:R_Small" (pin_numbers hide) (pin_names (offset 0.254) hide) (in_bom yes) (on_board yes)
      (property "Reference" "R" (at 0.762 0.508 0)
        (effects (font (size 1.27 1.27)) (justify left))
      )
      (property "Value" "R_Small" (at 0.762 -1.016 0)
        (effects (font (size 1.27 1.27)) (justify left))
      )
      (property "Footprint" "" (at 0 0 0)
        (effects (font (size 1.27 1.27)) hide)
      )
      (property "Datasheet" "~" (at 0 0 0)
        (effects (font (size 1.27 1.27)) hide)
      )
      (property "ki_keywords" "R resistor" (at 0 0 0)
        (effects (font (size 1.27 1.27)) hide)
      )
      (property "ki_description" "Resistor, small symbol" (at 0 0 0)
        (effects (font (size 1.27 1.27)) hide)
      )
      (property "ki_fp_filters" "R_*" (at 0 0 0)
        (effects (font (size 1.27 1.27)) hide)
      )
      (symbol "R_Small_0_1"
        (rectangle (start -0.762 1.778) (end 0.762 -1.778)
          (stroke (width 0.2032) (type default))
          (fill (type none))
        )
      )
      (symbol "R_Small_1_1"
        (pin passive line (at 0 2.54 270) (length 0.762)
          (name "~" (effects (font (size 1.27 1.27))))
          (number "1" (effects (font (size 1.27 1.27))))
        )
        (pin passive line (at 0 -2.54 90) (length 0.762)
          (name "~" (effects (font (size 1.27 1.27))))
          (number "2" (effects (font (size 1.27 1.27))))
        )
      )
    )
    (symbol "Transistor_BJT:2N3904" (pin_names (offset 0) hide) (in_bom yes) (on_board yes)
      (property "Reference" "Q" (at 5.08 1.905 0)
        (effects (font (size 1.27 1.27)) (justify left))
      )
      (property "Value" "2N3904" (at 5.08 0 0)
        (effects (font (size 1.27 1.27)) (justify left))
      )
      (property "Footprint" "Package_TO_SOT_THT:TO-92_Inline" (at 5.08 -1.905 0)
        (effects (font (size 1.27 1.27) italic) (justify left) hide)
      )
      (property "Datasheet" "https://www.onsemi.com/pub/Collateral/2N3903-D.PDF" (at 0 0 0)
        (effects (font (size 1.27 1.27)) (justify left) hide)
      )
      (property "ki_keywords" "NPN Transistor" (at 0 0 0)
        (effects (font (size 1.27 1.27)) hide)
      )
      (property "ki_description" "0.2A Ic, 40V Vce, Small Signal NPN Transistor, TO-92" (at 0 0 0)
        (effects (font (size 1.27 1.27)) hide)
      )
      (property "ki_fp_filters" "TO?92*" (at 0 0 0)
        (effects (font (size 1.27 1.27)) hide)
      )
      (symbol "2N3904_0_1"
        (polyline
          (pts
            (xy 0.635 0.635)
            (xy 2.54 2.54)
          )
          (stroke (width 0) (type default))
          (fill (type none))
        )
        (polyline
          (pts
            (xy 0.635 -0.635)
            (xy 2.54 -2.54)
            (xy 2.54 -2.54)
          )
          (stroke (width 0) (type default))
          (fill (type none))
        )
        (polyline
          (pts
            (xy 0.635 1.905)
            (xy 0.635 -1.905)
            (xy 0.635 -1.905)
          )
          (stroke (width 0.508) (type default))
          (fill (type none))
        )
        (polyline
          (pts
            (xy 1.27 -1.778)
            (xy 1.778 -1.27)
            (xy 2.286 -2.286)
            (xy 1.27 -1.778)
            (xy 1.27 -1.778)
          )
          (stroke (width 0) (type default))
          (fill (type outline))
        )
        (circle (center 1.27 0) (radius 2.8194)
          (stroke (width 0.254) (type default))
          (fill (type none))
        )
      )
      (symbol "2N3904_1_1"
        (pin passive line (at 2.54 -5.08 90) (length 2.54)
          (name "E" (effects (font (size 1.27 1.27))))
          (number "1" (effects (font (size 1.27 1.27))))
        )
        (pin passive line (at -5.08 0 0) (length 5.715)
          (name "B" (effects (font (size 1.27 1.27))))
          (number "2" (effects (font (size 1.27 1.27))))
        )
        (pin passive line (at 2.54 5.08 270) (length 2.54)
          (name "C" (effects (font (size 1.27 1.27))))
          (number "3" (effects (font (size 1.27 1.27))))
        )
      )
    )
    (symbol "power:+3V3" (power) (pin_names (offset 0)) (in_bom yes) (on_board yes)
      (property "Reference" "#PWR" (at 0 -3.81 0)
        (effects (font (size 1.27 1.27)) hide)
      )
      (property "Value" "+3V3" (at 0 3.556 0)
        (effects (font (size 1.27 1.27)))
      )
      (property "Footprint" "" (at 0 0 0)
        (effects (font (size 1.27 1.27)) hide)
      )
      (property "Datasheet" "" (at 0 0 0)
        (effects (font (size 1.27 1.27)) hide)
      )
      (property "ki_keywords" "global power" (at 0 0 0)
        (effects (font (size 1.27 1.27)) hide)
      )
      (property "ki_description" "Power symbol creates a global label with name \"+3V3\"" (at 0 0 0)
        (effects (font (size 1.27 1.27)) hide)
      )
      (symbol "+3V3_0_1"
        (polyline
          (pts
            (xy -0.762 1.27)
            (xy 0 2.54)
          )
          (stroke (width 0) (type default))
          (fill (type none))
        )
        (polyline
          (pts
            (xy 0 0)
            (xy 0 2.54)
          )
          (stroke (width 0) (type default))
          (fill (type none))
        )
        (polyline
          (pts
            (xy 0 2.54)
            (xy 0.762 1.27)
          )
          (stroke (width 0) (type default))
          (fill (type none))
        )
      )
      (symbol "+3V3_1_1"
        (pin power_in line (at 0 0 90) (length 0) hide
          (name "+3V3" (effects (font (size 1.27 1.27))))
          (number "1" (effects (font (size 1.27 1.27))))
        )
      )
    )
    (symbol "power:+5V" (power) (pin_names (offset 0)) (in_bom yes) (on_board yes)
      (property "Reference" "#PWR" (at 0 -3.81 0)
        (effects (font (size 1.27 1.27)) hide)
      )
      (property "Value" "+5V" (at 0 3.556 0)
        (effects (font (size 1.27 1.27)))
      )
      (property "Footprint" "" (at 0 0 0)
        (effects (font (size 1.27 1.27)) hide)
      )
      (property "Datasheet" "" (at 0 0 0)
        (effects (font (size 1.27 1.27)) hide)
      )
      (property "ki_keywords" "global power" (at 0 0 0)
        (effects (font (size 1.27 1.27)) hide)
      )
      (property "ki_description" "Power symbol creates a global label with name \"+5V\"" (at 0 0 0)
        (effects (font (size 1.27 1.27)) hide)
      )
      (symbol "+5V_0_1"
        (polyline
          (pts
            (xy -0.762 1.27)
            (xy 0 2.54)
          )
          (stroke (width 0) (type default))
          (fill (type none))
        )
        (polyline
          (pts
            (xy 0 0)
            (xy 0 2.54)
          )
          (stroke (width 0) (type default))
          (fill (type none))
        )
        (polyline
          (pts
            (xy 0 2.54)
            (xy 0.762 1.27)
          )
          (stroke (width 0) (type default))
          (fill (type none))
        )
      )
      (symbol "+5V_1_1"
        (pin power_in line (at 0 0 90) (length 0) hide
          (name "+5V" (effects (font (size 1.27 1.27))))
          (number "1" (effects (font (size 1.27 1.27))))
        )
      )
    )
    (symbol "power:GND" (power) (pin_names (offset 0)) (in_bom yes) (on_board yes)
      (property "Reference" "#PWR" (at 0 -6.35 0)
        (effects (font (size 1.27 1.27)) hide)
      )
      (property "Value" "GND" (at 0 -3.81 0)
        (effects (font (size 1.27 1.27)))
      )
      (property "Footprint" "" (at 0 0 0)
        (effects (font (size 1.27 1.27)) hide)
      )
      (property "Datasheet" "" (at 0 0 0)
        (effects (font (size 1.27 1.27)) hide)
      )
      (property "ki_keywords" "global power" (at 0 0 0)
        (effects (font (size 1.27 1.27)) hide)
      )
      (property "ki_description" "Power symbol creates a global label with name \"GND\" , ground" (at 0 0 0)
        (effects (font (size 1.27 1.27)) hide)
      )
      (symbol "GND_0_1"
        (polyline
          (pts
            (xy 0 0)
            (xy 0 -1.27)
            (xy 1.27 -1.27)
            (xy 0 -2.54)
            (xy -1.27 -1.27)
            (xy 0 -1.27)
          )
          (stroke (width 0) (type default))
          (fill (type none))
        )
      )
      (symbol "GND_1_1"
        (pin power_in line (at 0 0 270) (length 0) hide
          (name "GND" (effects (font (size 1.27 1.27))))
          (number "1" (effects (font (size 1.27 1.27))))
        )
      )
    )
  )

  (junction (at 160.02 83.82) (diameter 0) (color 0 0 0 0)
    (uuid 112b13fa-c9b5-455f-92ac-a846f43b4bdf)
  )
  (junction (at 138.43 90.17) (diameter 0) (color 0 0 0 0)
    (uuid f9e9b254-ea05-4d28-bffb-76e0e6c61146)
  )

  (wire (pts (xy 138.43 102.87) (xy 138.43 107.95))
    (stroke (width 0) (type default))
    (uuid 1fd0283c-dfd6-4c57-bacd-d626c9342693)
  )
  (wire (pts (xy 160.02 81.28) (xy 160.02 83.82))
    (stroke (width 0) (type default))
    (uuid 265b35fb-7264-463a-a9b0-2bd5d9094635)
  )
  (wire (pts (xy 127 97.79) (xy 130.81 97.79))
    (stroke (width 0) (type default))
    (uuid 2fa93b63-cbb6-4ccd-b777-a11fbc2940bb)
  )
  (wire (pts (xy 138.43 72.39) (xy 138.43 76.2))
    (stroke (width 0) (type default))
    (uuid 340f2b53-cd6a-41e3-b63d-9827816f7313)
  )
  (wire (pts (xy 160.02 95.25) (xy 160.02 107.95))
    (stroke (width 0) (type default))
    (uuid 36441ceb-3527-4d32-bf92-2552df58e4eb)
  )
  (wire (pts (xy 138.43 92.71) (xy 138.43 90.17))
    (stroke (width 0) (type default))
    (uuid 49e36d44-5058-44e3-9bfd-7057a5c2b9e8)
  )
  (wire (pts (xy 160.02 83.82) (xy 160.02 85.09))
    (stroke (width 0) (type default))
    (uuid 5979dfb0-96a4-4b78-b0ff-35fd031339e5)
  )
  (wire (pts (xy 115.57 97.79) (xy 121.92 97.79))
    (stroke (width 0) (type default))
    (uuid 8e2ba347-0314-407b-9b38-96b571c35915)
  )
  (wire (pts (xy 138.43 90.17) (xy 152.4 90.17))
    (stroke (width 0) (type default))
    (uuid b584fc5f-f8ca-4bd1-9fec-7908ff3ef298)
  )
  (wire (pts (xy 160.02 83.82) (xy 167.64 83.82))
    (stroke (width 0) (type default))
    (uuid b8126663-19c3-4375-acc8-620273f05e43)
  )
  (wire (pts (xy 160.02 72.39) (xy 160.02 76.2))
    (stroke (width 0) (type default))
    (uuid bebfd7c5-db1a-4f80-8e7d-825184af3df0)
  )
  (wire (pts (xy 138.43 81.28) (xy 138.43 90.17))
    (stroke (width 0) (type default))
    (uuid ce6b0fa4-fa19-4b1a-83bb-271f354cb418)
  )

  (text "2.2K Simulates average\nTTL output sink. \n(useful for direct LED switching)"
    (at 168.91 81.28 0)
    (effects (font (size 1.27 1.27)) (justify left bottom))
    (uuid a2a9ef75-3a82-4e81-bf82-776d737cec22)
  )

  (hierarchical_label "HV_OUT" (shape output) (at 167.64 83.82 0) (fields_autoplaced)
    (effects (font (size 1.27 1.27)) (justify left))
    (uuid d0b7815a-1a1a-4036-bd51-2ae1ac116122)
  )
  (hierarchical_label "LV_IN" (shape input) (at 115.57 97.79 180) (fields_autoplaced)
    (effects (font (size 1.27 1.27)) (justify right))
    (uuid fe3924df-7605-485d-a79e-963b4fdc37a8)
  )

  (symbol (lib_id "Transistor_BJT:2N3904") (at 135.89 97.79 0) (unit 1)
    (in_bom yes) (on_board yes) (dnp no) (fields_autoplaced)
    (uuid 020f7516-6b85-4d3e-9cb5-98498d2ac63a)
    (property "Reference" "Q601" (at 140.97 97.155 0)
      (effects (font (size 1.27 1.27)) (justify left))
    )
    (property "Value" "2N3904" (at 140.97 99.695 0)
      (effects (font (size 1.27 1.27)) (justify left))
    )
    (property "Footprint" "Package_TO_SOT_THT:TO-92_Inline" (at 140.97 99.695 0)
      (effects (font (size 1.27 1.27) italic) (justify left) hide)
    )
    (property "Datasheet" "https://www.onsemi.com/pub/Collateral/2N3903-D.PDF" (at 135.89 97.79 0)
      (effects (font (size 1.27 1.27)) (justify left) hide)
    )
    (pin "1" (uuid 79d61ce3-7883-4c6d-8ceb-41bd7dc92589))
    (pin "2" (uuid 265ba4e9-1905-418d-9b43-619e45b48953))
    (pin "3" (uuid 7c78940d-c789-4e21-80ca-0ad18a81c404))
    (instances
      (project "ID-4001-WIFI"
        (path "/f9865a9f-edb8-49c7-828f-4896e1f3047a/38057ebc-0e95-4bda-b454-29f960772463"
          (reference "Q601") (unit 1)
        )
        (path "/f9865a9f-edb8-49c7-828f-4896e1f3047a/2a446a6e-a110-4ed0-9bf2-098f112b70a3"
          (reference "Q301") (unit 1)
        )
        (path "/f9865a9f-edb8-49c7-828f-4896e1f3047a/e68f2ed4-0d44-45b5-a0b4-c6e87234e887"
          (reference "Q401") (unit 1)
        )
        (path "/f9865a9f-edb8-49c7-828f-4896e1f3047a/a70a4d17-5356-4f72-a8ce-76181e704159"
          (reference "Q501") (unit 1)
        )
        (path "/f9865a9f-edb8-49c7-828f-4896e1f3047a/6df16672-9a86-456c-a27a-2a65588d52cf"
          (reference "Q801") (unit 1)
        )
        (path "/f9865a9f-edb8-49c7-828f-4896e1f3047a/80bd6738-2576-4138-8acc-3a9c0ec7bf55"
          (reference "Q901") (unit 1)
        )
        (path "/f9865a9f-edb8-49c7-828f-4896e1f3047a/60fbcc74-bf08-4003-b6d1-d7d0fffed36a"
          (reference "Q1001") (unit 1)
        )
      )
    )
  )

  (symbol (lib_id "power:GND") (at 160.02 107.95 0) (unit 1)
    (in_bom yes) (on_board yes) (dnp no)
    (uuid 0e0c2070-4a93-4683-a596-6b5764b7dc6b)
    (property "Reference" "#PWR0604" (at 160.02 114.3 0)
      (effects (font (size 1.27 1.27)) hide)
    )
    (property "Value" "GND" (at 160.02 111.76 0)
      (effects (font (size 1.27 1.27)))
    )
    (property "Footprint" "" (at 160.02 107.95 0)
      (effects (font (size 1.27 1.27)) hide)
    )
    (property "Datasheet" "" (at 160.02 107.95 0)
      (effects (font (size 1.27 1.27)) hide)
    )
    (pin "1" (uuid 9b4745a4-247c-478d-8ca6-071f8d527b9f))
    (instances
      (project "ID-4001-WIFI"
        (path "/f9865a9f-edb8-49c7-828f-4896e1f3047a/38057ebc-0e95-4bda-b454-29f960772463"
          (reference "#PWR0604") (unit 1)
        )
        (path "/f9865a9f-edb8-49c7-828f-4896e1f3047a/2a446a6e-a110-4ed0-9bf2-098f112b70a3"
          (reference "#PWR0304") (unit 1)
        )
        (path "/f9865a9f-edb8-49c7-828f-4896e1f3047a/e68f2ed4-0d44-45b5-a0b4-c6e87234e887"
          (reference "#PWR0404") (unit 1)
        )
        (path "/f9865a9f-edb8-49c7-828f-4896e1f3047a/a70a4d17-5356-4f72-a8ce-76181e704159"
          (reference "#PWR0504") (unit 1)
        )
        (path "/f9865a9f-edb8-49c7-828f-4896e1f3047a/6df16672-9a86-456c-a27a-2a65588d52cf"
          (reference "#PWR0804") (unit 1)
        )
        (path "/f9865a9f-edb8-49c7-828f-4896e1f3047a/80bd6738-2576-4138-8acc-3a9c0ec7bf55"
          (reference "#PWR0904") (unit 1)
        )
        (path "/f9865a9f-edb8-49c7-828f-4896e1f3047a/60fbcc74-bf08-4003-b6d1-d7d0fffed36a"
          (reference "#PWR01004") (unit 1)
        )
      )
    )
  )

  (symbol (lib_id "power:GND") (at 138.43 107.95 0) (unit 1)
    (in_bom yes) (on_board yes) (dnp no)
    (uuid 14ac75e0-93c4-4b95-ba44-3f00c225ae1e)
    (property "Reference" "#PWR0603" (at 138.43 114.3 0)
      (effects (font (size 1.27 1.27)) hide)
    )
    (property "Value" "GND" (at 138.43 111.76 0)
      (effects (font (size 1.27 1.27)))
    )
    (property "Footprint" "" (at 138.43 107.95 0)
      (effects (font (size 1.27 1.27)) hide)
    )
    (property "Datasheet" "" (at 138.43 107.95 0)
      (effects (font (size 1.27 1.27)) hide)
    )
    (pin "1" (uuid b4bf3372-3b2e-4051-a31f-d3b01e799009))
    (instances
      (project "ID-4001-WIFI"
        (path "/f9865a9f-edb8-49c7-828f-4896e1f3047a/38057ebc-0e95-4bda-b454-29f960772463"
          (reference "#PWR0603") (unit 1)
        )
        (path "/f9865a9f-edb8-49c7-828f-4896e1f3047a/2a446a6e-a110-4ed0-9bf2-098f112b70a3"
          (reference "#PWR0302") (unit 1)
        )
        (path "/f9865a9f-edb8-49c7-828f-4896e1f3047a/e68f2ed4-0d44-45b5-a0b4-c6e87234e887"
          (reference "#PWR0402") (unit 1)
        )
        (path "/f9865a9f-edb8-49c7-828f-4896e1f3047a/a70a4d17-5356-4f72-a8ce-76181e704159"
          (reference "#PWR0502") (unit 1)
        )
        (path "/f9865a9f-edb8-49c7-828f-4896e1f3047a/6df16672-9a86-456c-a27a-2a65588d52cf"
          (reference "#PWR0802") (unit 1)
        )
        (path "/f9865a9f-edb8-49c7-828f-4896e1f3047a/80bd6738-2576-4138-8acc-3a9c0ec7bf55"
          (reference "#PWR0902") (unit 1)
        )
        (path "/f9865a9f-edb8-49c7-828f-4896e1f3047a/60fbcc74-bf08-4003-b6d1-d7d0fffed36a"
          (reference "#PWR01002") (unit 1)
        )
      )
    )
  )

  (symbol (lib_id "power:+3V3") (at 138.43 72.39 0) (unit 1)
    (in_bom yes) (on_board yes) (dnp no) (fields_autoplaced)
    (uuid 1772aa54-e5db-421e-a047-c11e5bdd1a7e)
    (property "Reference" "#PWR0601" (at 138.43 76.2 0)
      (effects (font (size 1.27 1.27)) hide)
    )
    (property "Value" "+3V3" (at 138.43 68.58 0)
      (effects (font (size 1.27 1.27)))
    )
    (property "Footprint" "" (at 138.43 72.39 0)
      (effects (font (size 1.27 1.27)) hide)
    )
    (property "Datasheet" "" (at 138.43 72.39 0)
      (effects (font (size 1.27 1.27)) hide)
    )
    (pin "1" (uuid a62d14e3-7acc-4b83-a726-936a98aa706f))
    (instances
      (project "ID-4001-WIFI"
        (path "/f9865a9f-edb8-49c7-828f-4896e1f3047a/38057ebc-0e95-4bda-b454-29f960772463"
          (reference "#PWR0601") (unit 1)
        )
        (path "/f9865a9f-edb8-49c7-828f-4896e1f3047a/2a446a6e-a110-4ed0-9bf2-098f112b70a3"
          (reference "#PWR0301") (unit 1)
        )
        (path "/f9865a9f-edb8-49c7-828f-4896e1f3047a/e68f2ed4-0d44-45b5-a0b4-c6e87234e887"
          (reference "#PWR0401") (unit 1)
        )
        (path "/f9865a9f-edb8-49c7-828f-4896e1f3047a/a70a4d17-5356-4f72-a8ce-76181e704159"
          (reference "#PWR0501") (unit 1)
        )
        (path "/f9865a9f-edb8-49c7-828f-4896e1f3047a/6df16672-9a86-456c-a27a-2a65588d52cf"
          (reference "#PWR0801") (unit 1)
        )
        (path "/f9865a9f-edb8-49c7-828f-4896e1f3047a/80bd6738-2576-4138-8acc-3a9c0ec7bf55"
          (reference "#PWR0901") (unit 1)
        )
        (path "/f9865a9f-edb8-49c7-828f-4896e1f3047a/60fbcc74-bf08-4003-b6d1-d7d0fffed36a"
          (reference "#PWR01001") (unit 1)
        )
      )
    )
  )

  (symbol (lib_id "power:+5V") (at 160.02 72.39 0) (unit 1)
    (in_bom yes) (on_board yes) (dnp no) (fields_autoplaced)
    (uuid 1b466353-58eb-4e92-bcc3-c4c0e0d6ef78)
    (property "Reference" "#PWR0602" (at 160.02 76.2 0)
      (effects (font (size 1.27 1.27)) hide)
    )
    (property "Value" "+5V" (at 160.02 68.58 0)
      (effects (font (size 1.27 1.27)))
    )
    (property "Footprint" "" (at 160.02 72.39 0)
      (effects (font (size 1.27 1.27)) hide)
    )
    (property "Datasheet" "" (at 160.02 72.39 0)
      (effects (font (size 1.27 1.27)) hide)
    )
    (pin "1" (uuid 2be40852-08b9-4d17-8dc3-7f41f184e541))
    (instances
      (project "ID-4001-WIFI"
        (path "/f9865a9f-edb8-49c7-828f-4896e1f3047a/38057ebc-0e95-4bda-b454-29f960772463"
          (reference "#PWR0602") (unit 1)
        )
        (path "/f9865a9f-edb8-49c7-828f-4896e1f3047a/2a446a6e-a110-4ed0-9bf2-098f112b70a3"
          (reference "#PWR0303") (unit 1)
        )
        (path "/f9865a9f-edb8-49c7-828f-4896e1f3047a/e68f2ed4-0d44-45b5-a0b4-c6e87234e887"
          (reference "#PWR0403") (unit 1)
        )
        (path "/f9865a9f-edb8-49c7-828f-4896e1f3047a/a70a4d17-5356-4f72-a8ce-76181e704159"
          (reference "#PWR0503") (unit 1)
        )
        (path "/f9865a9f-edb8-49c7-828f-4896e1f3047a/6df16672-9a86-456c-a27a-2a65588d52cf"
          (reference "#PWR0803") (unit 1)
        )
        (path "/f9865a9f-edb8-49c7-828f-4896e1f3047a/80bd6738-2576-4138-8acc-3a9c0ec7bf55"
          (reference "#PWR0903") (unit 1)
        )
        (path "/f9865a9f-edb8-49c7-828f-4896e1f3047a/60fbcc74-bf08-4003-b6d1-d7d0fffed36a"
          (reference "#PWR01003") (unit 1)
        )
      )
    )
  )

  (symbol (lib_id "Device:R_Small") (at 160.02 78.74 180) (unit 1)
    (in_bom yes) (on_board yes) (dnp no) (fields_autoplaced)
    (uuid 891ae222-66cc-4adf-8fab-59a9f7efb8ed)
    (property "Reference" "R604" (at 162.56 78.105 0)
      (effects (font (size 1.27 1.27)) (justify right))
    )
    (property "Value" "2.2K" (at 162.56 80.645 0)
      (effects (font (size 1.27 1.27)) (justify right))
    )
    (property "Footprint" "Resistor_THT:R_Axial_DIN0207_L6.3mm_D2.5mm_P10.16mm_Horizontal" (at 160.02 78.74 0)
      (effects (font (size 1.27 1.27)) hide)
    )
    (property "Datasheet" "~" (at 160.02 78.74 0)
      (effects (font (size 1.27 1.27)) hide)
    )
    (pin "1" (uuid 06af3dd6-c10e-4089-a1a9-76939197f880))
    (pin "2" (uuid cecd6f36-29ad-4c45-a1c6-ba4218b3426f))
    (instances
      (project "ID-4001-WIFI"
        (path "/f9865a9f-edb8-49c7-828f-4896e1f3047a/38057ebc-0e95-4bda-b454-29f960772463"
          (reference "R604") (unit 1)
        )
        (path "/f9865a9f-edb8-49c7-828f-4896e1f3047a/2a446a6e-a110-4ed0-9bf2-098f112b70a3"
          (reference "R303") (unit 1)
        )
        (path "/f9865a9f-edb8-49c7-828f-4896e1f3047a/e68f2ed4-0d44-45b5-a0b4-c6e87234e887"
          (reference "R403") (unit 1)
        )
        (path "/f9865a9f-edb8-49c7-828f-4896e1f3047a/a70a4d17-5356-4f72-a8ce-76181e704159"
          (reference "R503") (unit 1)
        )
        (path "/f9865a9f-edb8-49c7-828f-4896e1f3047a/6df16672-9a86-456c-a27a-2a65588d52cf"
          (reference "R803") (unit 1)
        )
        (path "/f9865a9f-edb8-49c7-828f-4896e1f3047a/80bd6738-2576-4138-8acc-3a9c0ec7bf55"
          (reference "R903") (unit 1)
        )
        (path "/f9865a9f-edb8-49c7-828f-4896e1f3047a/60fbcc74-bf08-4003-b6d1-d7d0fffed36a"
          (reference "R1003") (unit 1)
        )
      )
    )
  )

  (symbol (lib_id "Device:R_Small") (at 138.43 78.74 180) (unit 1)
    (in_bom yes) (on_board yes) (dnp no) (fields_autoplaced)
    (uuid 89a6238a-c88c-452d-9e34-5b57b6e69d63)
    (property "Reference" "R603" (at 140.97 78.105 0)
      (effects (font (size 1.27 1.27)) (justify right))
    )
    (property "Value" "10K" (at 140.97 80.645 0)
      (effects (font (size 1.27 1.27)) (justify right))
    )
    (property "Footprint" "Resistor_THT:R_Axial_DIN0207_L6.3mm_D2.5mm_P10.16mm_Horizontal" (at 138.43 78.74 0)
      (effects (font (size 1.27 1.27)) hide)
    )
    (property "Datasheet" "~" (at 138.43 78.74 0)
      (effects (font (size 1.27 1.27)) hide)
    )
    (pin "1" (uuid 45406f79-59c6-49c4-9e95-549cf1eab4a7))
    (pin "2" (uuid a1ab5024-6814-4032-b12f-d02077f38ba0))
    (instances
      (project "ID-4001-WIFI"
        (path "/f9865a9f-edb8-49c7-828f-4896e1f3047a/38057ebc-0e95-4bda-b454-29f960772463"
          (reference "R603") (unit 1)
        )
        (path "/f9865a9f-edb8-49c7-828f-4896e1f3047a/2a446a6e-a110-4ed0-9bf2-098f112b70a3"
          (reference "R302") (unit 1)
        )
        (path "/f9865a9f-edb8-49c7-828f-4896e1f3047a/e68f2ed4-0d44-45b5-a0b4-c6e87234e887"
          (reference "R402") (unit 1)
        )
        (path "/f9865a9f-edb8-49c7-828f-4896e1f3047a/a70a4d17-5356-4f72-a8ce-76181e704159"
          (reference "R502") (unit 1)
        )
        (path "/f9865a9f-edb8-49c7-828f-4896e1f3047a/6df16672-9a86-456c-a27a-2a65588d52cf"
          (reference "R802") (unit 1)
        )
        (path "/f9865a9f-edb8-49c7-828f-4896e1f3047a/80bd6738-2576-4138-8acc-3a9c0ec7bf55"
          (reference "R902") (unit 1)
        )
        (path "/f9865a9f-edb8-49c7-828f-4896e1f3047a/60fbcc74-bf08-4003-b6d1-d7d0fffed36a"
          (reference "R1002") (unit 1)
        )
      )
    )
  )

  (symbol (lib_id "Device:R_Small") (at 124.46 97.79 90) (unit 1)
    (in_bom yes) (on_board yes) (dnp no) (fields_autoplaced)
    (uuid 92807aa1-c0c6-40f0-86c2-1c6655f07df1)
    (property "Reference" "R602" (at 124.46 92.71 90)
      (effects (font (size 1.27 1.27)))
    )
    (property "Value" "1K" (at 124.46 95.25 90)
      (effects (font (size 1.27 1.27)))
    )
    (property "Footprint" "Resistor_THT:R_Axial_DIN0207_L6.3mm_D2.5mm_P10.16mm_Horizontal" (at 124.46 97.79 0)
      (effects (font (size 1.27 1.27)) hide)
    )
    (property "Datasheet" "~" (at 124.46 97.79 0)
      (effects (font (size 1.27 1.27)) hide)
    )
    (pin "1" (uuid 128a0a1c-07e5-4831-8479-fe6a3f239a06))
    (pin "2" (uuid 861c947d-bfe1-42d7-84a8-12465e66c629))
    (instances
      (project "ID-4001-WIFI"
        (path "/f9865a9f-edb8-49c7-828f-4896e1f3047a/38057ebc-0e95-4bda-b454-29f960772463"
          (reference "R602") (unit 1)
        )
        (path "/f9865a9f-edb8-49c7-828f-4896e1f3047a/2a446a6e-a110-4ed0-9bf2-098f112b70a3"
          (reference "R301") (unit 1)
        )
        (path "/f9865a9f-edb8-49c7-828f-4896e1f3047a/e68f2ed4-0d44-45b5-a0b4-c6e87234e887"
          (reference "R401") (unit 1)
        )
        (path "/f9865a9f-edb8-49c7-828f-4896e1f3047a/a70a4d17-5356-4f72-a8ce-76181e704159"
          (reference "R501") (unit 1)
        )
        (path "/f9865a9f-edb8-49c7-828f-4896e1f3047a/6df16672-9a86-456c-a27a-2a65588d52cf"
          (reference "R801") (unit 1)
        )
        (path "/f9865a9f-edb8-49c7-828f-4896e1f3047a/80bd6738-2576-4138-8acc-3a9c0ec7bf55"
          (reference "R901") (unit 1)
        )
        (path "/f9865a9f-edb8-49c7-828f-4896e1f3047a/60fbcc74-bf08-4003-b6d1-d7d0fffed36a"
          (reference "R1001") (unit 1)
        )
      )
    )
  )

  (symbol (lib_id "Transistor_BJT:2N3904") (at 157.48 90.17 0) (unit 1)
    (in_bom yes) (on_board yes) (dnp no) (fields_autoplaced)
    (uuid b5177f3f-22e7-45de-abd5-a052d289b01f)
    (property "Reference" "Q602" (at 162.56 89.535 0)
      (effects (font (size 1.27 1.27)) (justify left))
    )
    (property "Value" "2N3904" (at 162.56 92.075 0)
      (effects (font (size 1.27 1.27)) (justify left))
    )
    (property "Footprint" "Package_TO_SOT_THT:TO-92_Inline" (at 162.56 92.075 0)
      (effects (font (size 1.27 1.27) italic) (justify left) hide)
    )
    (property "Datasheet" "https://www.onsemi.com/pub/Collateral/2N3903-D.PDF" (at 157.48 90.17 0)
      (effects (font (size 1.27 1.27)) (justify left) hide)
    )
    (pin "1" (uuid e44a938a-3b83-426f-88ac-326c4e85c5c6))
    (pin "2" (uuid d0a0a698-fe07-4d0a-bfd4-0f07ec794236))
    (pin "3" (uuid 21a21006-cea1-4344-9ad6-a1a2ec66ff6b))
    (instances
      (project "ID-4001-WIFI"
        (path "/f9865a9f-edb8-49c7-828f-4896e1f3047a/38057ebc-0e95-4bda-b454-29f960772463"
          (reference "Q602") (unit 1)
        )
        (path "/f9865a9f-edb8-49c7-828f-4896e1f3047a/2a446a6e-a110-4ed0-9bf2-098f112b70a3"
          (reference "Q302") (unit 1)
        )
        (path "/f9865a9f-edb8-49c7-828f-4896e1f3047a/e68f2ed4-0d44-45b5-a0b4-c6e87234e887"
          (reference "Q402") (unit 1)
        )
        (path "/f9865a9f-edb8-49c7-828f-4896e1f3047a/a70a4d17-5356-4f72-a8ce-76181e704159"
          (reference "Q502") (unit 1)
        )
        (path "/f9865a9f-edb8-49c7-828f-4896e1f3047a/6df16672-9a86-456c-a27a-2a65588d52cf"
          (reference "Q802") (unit 1)
        )
        (path "/f9865a9f-edb8-49c7-828f-4896e1f3047a/80bd6738-2576-4138-8acc-3a9c0ec7bf55"
          (reference "Q902") (unit 1)
        )
        (path "/f9865a9f-edb8-49c7-828f-4896e1f3047a/60fbcc74-bf08-4003-b6d1-d7d0fffed36a"
          (reference "Q1002") (unit 1)
        )
      )
    )
  )
)
